chatGPT - 챗GPT 데이터 사이언스
…
코드
library(httr)
library(tidyverse)

squid_game_req <- glue::glue("http://www.omdbapi.com/",
           "?i={Sys.getenv('OMDB_API_ID')}",
           "&apikey={Sys.getenv('OMDB_API_KEY')}",
           "&t=squid+game")

squid_resp <- GET(squid_game_req)

jsonlite::fromJSON(content(squid_resp, "text")) %>% 
  enframe() %>% 
  mutate(value = map_chr(value, 1))
#> # A tibble: 22 × 2
#>    name     value                                                               
#>    <chr>    <chr>                                                               
#>  1 Title    Squid Game                                                          
#>  2 Year     2021–                                                               
#>  3 Rated    TV-MA                                                               
#>  4 Released 17 Sep 2021                                                         
#>  5 Runtime  N/A                                                                 
#>  6 Genre    Action, Drama, Mystery                                              
#>  7 Director N/A                                                                 
#>  8 Writer   N/A                                                                 
#>  9 Actors   Lee Jung-jae, Park Hae-soo, Yasushi Iwaki                           
#> 10 Plot     Hundreds of cash-strapped players accept a strange invitation to co…
#> # ℹ 12 more rows
…
